-- Merging decision tree log ---
manifest
ADDED from /Users/nileshjarad/AndroidStudioProjects/PramVeer/DriveSafe-master/app/src/main/AndroidManifest.xml:2:1-106:12
	package
		ADDED from /Users/nileshjarad/AndroidStudioProjects/PramVeer/DriveSafe-master/app/src/main/AndroidManifest.xml:3:5-36
		INJECTED from /Users/nileshjarad/AndroidStudioProjects/PramVeer/DriveSafe-master/app/src/main/AndroidManifest.xml
		INJECTED from /Users/nileshjarad/AndroidStudioProjects/PramVeer/DriveSafe-master/app/src/main/AndroidManifest.xml
	android:versionName
		ADDED from /Users/nileshjarad/AndroidStudioProjects/PramVeer/DriveSafe-master/app/src/main/AndroidManifest.xml:5:5-30
	android:versionCode
		ADDED from /Users/nileshjarad/AndroidStudioProjects/PramVeer/DriveSafe-master/app/src/main/AndroidManifest.xml:4:5-28
		INJECTED from /Users/nileshjarad/AndroidStudioProjects/PramVeer/DriveSafe-master/app/src/main/AndroidManifest.xml
		INJECTED from /Users/nileshjarad/AndroidStudioProjects/PramVeer/DriveSafe-master/app/src/main/AndroidManifest.xml
	xmlns:android
		ADDED from /Users/nileshjarad/AndroidStudioProjects/PramVeer/DriveSafe-master/app/src/main/AndroidManifest.xml:2:11-69
uses-sdk
ADDED from /Users/nileshjarad/AndroidStudioProjects/PramVeer/DriveSafe-master/app/src/main/AndroidManifest.xml:7:5-43
	android:targetSdkVersion
		INJECTED from /Users/nileshjarad/AndroidStudioProjects/PramVeer/DriveSafe-master/app/src/main/AndroidManifest.xml
		INJECTED from /Users/nileshjarad/AndroidStudioProjects/PramVeer/DriveSafe-master/app/src/main/AndroidManifest.xml
	android:minSdkVersion
		ADDED from /Users/nileshjarad/AndroidStudioProjects/PramVeer/DriveSafe-master/app/src/main/AndroidManifest.xml:7:15-40
		INJECTED from /Users/nileshjarad/AndroidStudioProjects/PramVeer/DriveSafe-master/app/src/main/AndroidManifest.xml
		INJECTED from /Users/nileshjarad/AndroidStudioProjects/PramVeer/DriveSafe-master/app/src/main/AndroidManifest.xml
uses-permission#android.permission.RECEIVE_BOOT_COMPLETED
ADDED from /Users/nileshjarad/AndroidStudioProjects/PramVeer/DriveSafe-master/app/src/main/AndroidManifest.xml:9:5-81
	android:name
		ADDED from /Users/nileshjarad/AndroidStudioProjects/PramVeer/DriveSafe-master/app/src/main/AndroidManifest.xml:9:22-78
uses-permission#android.permission.ACCESS_FINE_LOCATION
ADDED from /Users/nileshjarad/AndroidStudioProjects/PramVeer/DriveSafe-master/app/src/main/AndroidManifest.xml:10:5-79
	android:name
		ADDED from /Users/nileshjarad/AndroidStudioProjects/PramVeer/DriveSafe-master/app/src/main/AndroidManifest.xml:10:22-76
uses-permission#android.permission.ACCESS_MOCK_LOCATION
ADDED from /Users/nileshjarad/AndroidStudioProjects/PramVeer/DriveSafe-master/app/src/main/AndroidManifest.xml:11:5-79
	android:name
		ADDED from /Users/nileshjarad/AndroidStudioProjects/PramVeer/DriveSafe-master/app/src/main/AndroidManifest.xml:11:22-76
uses-permission#android.permission.DISABLE_KEYGUARD
ADDED from /Users/nileshjarad/AndroidStudioProjects/PramVeer/DriveSafe-master/app/src/main/AndroidManifest.xml:12:5-75
	android:name
		ADDED from /Users/nileshjarad/AndroidStudioProjects/PramVeer/DriveSafe-master/app/src/main/AndroidManifest.xml:12:22-72
uses-permission#android.permission.INTERNET
ADDED from /Users/nileshjarad/AndroidStudioProjects/PramVeer/DriveSafe-master/app/src/main/AndroidManifest.xml:13:5-67
	android:name
		ADDED from /Users/nileshjarad/AndroidStudioProjects/PramVeer/DriveSafe-master/app/src/main/AndroidManifest.xml:13:22-64
uses-permission#android.permission.CALL_PHONE
ADDED from /Users/nileshjarad/AndroidStudioProjects/PramVeer/DriveSafe-master/app/src/main/AndroidManifest.xml:14:5-69
	android:name
		ADDED from /Users/nileshjarad/AndroidStudioProjects/PramVeer/DriveSafe-master/app/src/main/AndroidManifest.xml:14:22-66
uses-permission#android.permission.READ_PHONE_STATE
ADDED from /Users/nileshjarad/AndroidStudioProjects/PramVeer/DriveSafe-master/app/src/main/AndroidManifest.xml:15:5-75
	android:name
		ADDED from /Users/nileshjarad/AndroidStudioProjects/PramVeer/DriveSafe-master/app/src/main/AndroidManifest.xml:15:22-72
uses-permission#android.permission.MODIFY_AUDIO_SETTINGS
ADDED from /Users/nileshjarad/AndroidStudioProjects/PramVeer/DriveSafe-master/app/src/main/AndroidManifest.xml:16:5-80
	android:name
		ADDED from /Users/nileshjarad/AndroidStudioProjects/PramVeer/DriveSafe-master/app/src/main/AndroidManifest.xml:16:22-77
uses-permission#android.permission.PROCESS_OUTGOING_CALLS
ADDED from /Users/nileshjarad/AndroidStudioProjects/PramVeer/DriveSafe-master/app/src/main/AndroidManifest.xml:17:5-81
	android:name
		ADDED from /Users/nileshjarad/AndroidStudioProjects/PramVeer/DriveSafe-master/app/src/main/AndroidManifest.xml:17:22-78
uses-permission#android.permission.BLUETOOTH
ADDED from /Users/nileshjarad/AndroidStudioProjects/PramVeer/DriveSafe-master/app/src/main/AndroidManifest.xml:18:5-68
	android:name
		ADDED from /Users/nileshjarad/AndroidStudioProjects/PramVeer/DriveSafe-master/app/src/main/AndroidManifest.xml:18:22-65
uses-permission#android.permission.WRITE_SETTINGS
ADDED from /Users/nileshjarad/AndroidStudioProjects/PramVeer/DriveSafe-master/app/src/main/AndroidManifest.xml:19:5-73
	android:name
		ADDED from /Users/nileshjarad/AndroidStudioProjects/PramVeer/DriveSafe-master/app/src/main/AndroidManifest.xml:19:22-70
uses-permission#android.permission.VIBRATE
ADDED from /Users/nileshjarad/AndroidStudioProjects/PramVeer/DriveSafe-master/app/src/main/AndroidManifest.xml:20:5-66
	android:name
		ADDED from /Users/nileshjarad/AndroidStudioProjects/PramVeer/DriveSafe-master/app/src/main/AndroidManifest.xml:20:22-63
uses-permission#android.permission.GET_TASKS
ADDED from /Users/nileshjarad/AndroidStudioProjects/PramVeer/DriveSafe-master/app/src/main/AndroidManifest.xml:21:5-68
	android:name
		ADDED from /Users/nileshjarad/AndroidStudioProjects/PramVeer/DriveSafe-master/app/src/main/AndroidManifest.xml:21:22-65
uses-permission#android.permission.WRITE_EXTERNAL_STORAGE
ADDED from /Users/nileshjarad/AndroidStudioProjects/PramVeer/DriveSafe-master/app/src/main/AndroidManifest.xml:22:5-81
	android:name
		ADDED from /Users/nileshjarad/AndroidStudioProjects/PramVeer/DriveSafe-master/app/src/main/AndroidManifest.xml:22:22-78
uses-permission#android.permission.ACCESS_NETWORK_STATE
ADDED from /Users/nileshjarad/AndroidStudioProjects/PramVeer/DriveSafe-master/app/src/main/AndroidManifest.xml:23:5-79
	android:name
		ADDED from /Users/nileshjarad/AndroidStudioProjects/PramVeer/DriveSafe-master/app/src/main/AndroidManifest.xml:23:22-76
uses-permission#android.permission.SEND_SMS
ADDED from /Users/nileshjarad/AndroidStudioProjects/PramVeer/DriveSafe-master/app/src/main/AndroidManifest.xml:24:5-67
	android:name
		ADDED from /Users/nileshjarad/AndroidStudioProjects/PramVeer/DriveSafe-master/app/src/main/AndroidManifest.xml:24:22-64
application
ADDED from /Users/nileshjarad/AndroidStudioProjects/PramVeer/DriveSafe-master/app/src/main/AndroidManifest.xml:25:5-104:19
	android:label
		ADDED from /Users/nileshjarad/AndroidStudioProjects/PramVeer/DriveSafe-master/app/src/main/AndroidManifest.xml:28:9-41
	android:allowBackup
		ADDED from /Users/nileshjarad/AndroidStudioProjects/PramVeer/DriveSafe-master/app/src/main/AndroidManifest.xml:26:9-35
	android:icon
		ADDED from /Users/nileshjarad/AndroidStudioProjects/PramVeer/DriveSafe-master/app/src/main/AndroidManifest.xml:27:9-38
activity#com.edreamz.drivesafe.ui.LauncherScreen
ADDED from /Users/nileshjarad/AndroidStudioProjects/PramVeer/DriveSafe-master/app/src/main/AndroidManifest.xml:29:9-35:20
	android:theme
		ADDED from /Users/nileshjarad/AndroidStudioProjects/PramVeer/DriveSafe-master/app/src/main/AndroidManifest.xml:30:13-71
	android:name
		ADDED from /Users/nileshjarad/AndroidStudioProjects/PramVeer/DriveSafe-master/app/src/main/AndroidManifest.xml:29:19-73
intent-filter#android.intent.action.MAIN+android.intent.category.LAUNCHER
ADDED from /Users/nileshjarad/AndroidStudioProjects/PramVeer/DriveSafe-master/app/src/main/AndroidManifest.xml:31:13-34:29
action#android.intent.action.MAIN
ADDED from /Users/nileshjarad/AndroidStudioProjects/PramVeer/DriveSafe-master/app/src/main/AndroidManifest.xml:32:17-69
	android:name
		ADDED from /Users/nileshjarad/AndroidStudioProjects/PramVeer/DriveSafe-master/app/src/main/AndroidManifest.xml:32:25-66
category#android.intent.category.LAUNCHER
ADDED from /Users/nileshjarad/AndroidStudioProjects/PramVeer/DriveSafe-master/app/src/main/AndroidManifest.xml:33:17-77
	android:name
		ADDED from /Users/nileshjarad/AndroidStudioProjects/PramVeer/DriveSafe-master/app/src/main/AndroidManifest.xml:33:27-74
activity#com.edreamz.drivesafe.ui.GPSEnableAlert
ADDED from /Users/nileshjarad/AndroidStudioProjects/PramVeer/DriveSafe-master/app/src/main/AndroidManifest.xml:36:9-42:20
	android:screenOrientation
		ADDED from /Users/nileshjarad/AndroidStudioProjects/PramVeer/DriveSafe-master/app/src/main/AndroidManifest.xml:41:13-49
	android:excludeFromRecents
		ADDED from /Users/nileshjarad/AndroidStudioProjects/PramVeer/DriveSafe-master/app/src/main/AndroidManifest.xml:39:13-46
	android:launchMode
		ADDED from /Users/nileshjarad/AndroidStudioProjects/PramVeer/DriveSafe-master/app/src/main/AndroidManifest.xml:40:13-48
	android:theme
		ADDED from /Users/nileshjarad/AndroidStudioProjects/PramVeer/DriveSafe-master/app/src/main/AndroidManifest.xml:38:13-71
	android:name
		ADDED from /Users/nileshjarad/AndroidStudioProjects/PramVeer/DriveSafe-master/app/src/main/AndroidManifest.xml:37:13-67
activity#com.edreamz.drivesafe.ui.DeviceAdminScreen
ADDED from /Users/nileshjarad/AndroidStudioProjects/PramVeer/DriveSafe-master/app/src/main/AndroidManifest.xml:45:9-47:20
	android:theme
		ADDED from /Users/nileshjarad/AndroidStudioProjects/PramVeer/DriveSafe-master/app/src/main/AndroidManifest.xml:46:13-71
	android:name
		ADDED from /Users/nileshjarad/AndroidStudioProjects/PramVeer/DriveSafe-master/app/src/main/AndroidManifest.xml:45:19-76
activity#com.edreamz.drivesafe.ui.UserTestScreen
ADDED from /Users/nileshjarad/AndroidStudioProjects/PramVeer/DriveSafe-master/app/src/main/AndroidManifest.xml:48:9-55:20
	android:screenOrientation
		ADDED from /Users/nileshjarad/AndroidStudioProjects/PramVeer/DriveSafe-master/app/src/main/AndroidManifest.xml:53:13-49
	android:excludeFromRecents
		ADDED from /Users/nileshjarad/AndroidStudioProjects/PramVeer/DriveSafe-master/app/src/main/AndroidManifest.xml:51:13-46
	android:launchMode
		ADDED from /Users/nileshjarad/AndroidStudioProjects/PramVeer/DriveSafe-master/app/src/main/AndroidManifest.xml:52:13-48
	android:windowSoftInputMode
		ADDED from /Users/nileshjarad/AndroidStudioProjects/PramVeer/DriveSafe-master/app/src/main/AndroidManifest.xml:54:13-55
	android:theme
		ADDED from /Users/nileshjarad/AndroidStudioProjects/PramVeer/DriveSafe-master/app/src/main/AndroidManifest.xml:50:13-71
	android:name
		ADDED from /Users/nileshjarad/AndroidStudioProjects/PramVeer/DriveSafe-master/app/src/main/AndroidManifest.xml:49:13-67
activity#com.edreamz.drivesafe.ui.UserTestResultAlert
ADDED from /Users/nileshjarad/AndroidStudioProjects/PramVeer/DriveSafe-master/app/src/main/AndroidManifest.xml:56:9-61:20
	android:screenOrientation
		ADDED from /Users/nileshjarad/AndroidStudioProjects/PramVeer/DriveSafe-master/app/src/main/AndroidManifest.xml:60:13-49
	android:excludeFromRecents
		ADDED from /Users/nileshjarad/AndroidStudioProjects/PramVeer/DriveSafe-master/app/src/main/AndroidManifest.xml:59:13-46
	android:theme
		ADDED from /Users/nileshjarad/AndroidStudioProjects/PramVeer/DriveSafe-master/app/src/main/AndroidManifest.xml:58:13-71
	android:name
		ADDED from /Users/nileshjarad/AndroidStudioProjects/PramVeer/DriveSafe-master/app/src/main/AndroidManifest.xml:57:13-72
service#com.edreamz.drivesafe.services.MainService
ADDED from /Users/nileshjarad/AndroidStudioProjects/PramVeer/DriveSafe-master/app/src/main/AndroidManifest.xml:63:9-64:19
	android:name
		ADDED from /Users/nileshjarad/AndroidStudioProjects/PramVeer/DriveSafe-master/app/src/main/AndroidManifest.xml:63:18-75
receiver#com.edreamz.drivesafe.listener.DeviceRebootReceiver
ADDED from /Users/nileshjarad/AndroidStudioProjects/PramVeer/DriveSafe-master/app/src/main/AndroidManifest.xml:66:9-75:20
	android:enabled
		ADDED from /Users/nileshjarad/AndroidStudioProjects/PramVeer/DriveSafe-master/app/src/main/AndroidManifest.xml:68:13-35
	android:permission
		ADDED from /Users/nileshjarad/AndroidStudioProjects/PramVeer/DriveSafe-master/app/src/main/AndroidManifest.xml:69:13-75
	android:name
		ADDED from /Users/nileshjarad/AndroidStudioProjects/PramVeer/DriveSafe-master/app/src/main/AndroidManifest.xml:67:13-79
intent-filter#android.intent.action.ACTION_SHUTDOWN+android.intent.action.BOOT_COMPLETED+android.intent.category.DEFAULT
ADDED from /Users/nileshjarad/AndroidStudioProjects/PramVeer/DriveSafe-master/app/src/main/AndroidManifest.xml:70:13-74:29
action#android.intent.action.BOOT_COMPLETED
ADDED from /Users/nileshjarad/AndroidStudioProjects/PramVeer/DriveSafe-master/app/src/main/AndroidManifest.xml:71:17-79
	android:name
		ADDED from /Users/nileshjarad/AndroidStudioProjects/PramVeer/DriveSafe-master/app/src/main/AndroidManifest.xml:71:25-76
action#android.intent.action.ACTION_SHUTDOWN
ADDED from /Users/nileshjarad/AndroidStudioProjects/PramVeer/DriveSafe-master/app/src/main/AndroidManifest.xml:72:17-80
	android:name
		ADDED from /Users/nileshjarad/AndroidStudioProjects/PramVeer/DriveSafe-master/app/src/main/AndroidManifest.xml:72:25-77
category#android.intent.category.DEFAULT
ADDED from /Users/nileshjarad/AndroidStudioProjects/PramVeer/DriveSafe-master/app/src/main/AndroidManifest.xml:73:17-76
	android:name
		ADDED from /Users/nileshjarad/AndroidStudioProjects/PramVeer/DriveSafe-master/app/src/main/AndroidManifest.xml:73:27-73
receiver#com.edreamz.drivesafe.listener.DeviceLockStatusReceiver
ADDED from /Users/nileshjarad/AndroidStudioProjects/PramVeer/DriveSafe-master/app/src/main/AndroidManifest.xml:76:9-88:20
	android:label
		ADDED from /Users/nileshjarad/AndroidStudioProjects/PramVeer/DriveSafe-master/app/src/main/AndroidManifest.xml:79:13-45
	android:permission
		ADDED from /Users/nileshjarad/AndroidStudioProjects/PramVeer/DriveSafe-master/app/src/main/AndroidManifest.xml:80:13-70
	android:description
		ADDED from /Users/nileshjarad/AndroidStudioProjects/PramVeer/DriveSafe-master/app/src/main/AndroidManifest.xml:78:13-64
	android:name
		ADDED from /Users/nileshjarad/AndroidStudioProjects/PramVeer/DriveSafe-master/app/src/main/AndroidManifest.xml:77:13-83
meta-data#android.app.device_admin
ADDED from /Users/nileshjarad/AndroidStudioProjects/PramVeer/DriveSafe-master/app/src/main/AndroidManifest.xml:81:13-83:56
	android:resource
		ADDED from /Users/nileshjarad/AndroidStudioProjects/PramVeer/DriveSafe-master/app/src/main/AndroidManifest.xml:83:17-53
	android:name
		ADDED from /Users/nileshjarad/AndroidStudioProjects/PramVeer/DriveSafe-master/app/src/main/AndroidManifest.xml:82:17-56
intent-filter#android.app.action.DEVICE_ADMIN_ENABLED
ADDED from /Users/nileshjarad/AndroidStudioProjects/PramVeer/DriveSafe-master/app/src/main/AndroidManifest.xml:85:13-87:29
action#android.app.action.DEVICE_ADMIN_ENABLED
ADDED from /Users/nileshjarad/AndroidStudioProjects/PramVeer/DriveSafe-master/app/src/main/AndroidManifest.xml:86:17-82
	android:name
		ADDED from /Users/nileshjarad/AndroidStudioProjects/PramVeer/DriveSafe-master/app/src/main/AndroidManifest.xml:86:25-79
receiver#com.edreamz.drivesafe.listener.OutgoingCallReceiver
ADDED from /Users/nileshjarad/AndroidStudioProjects/PramVeer/DriveSafe-master/app/src/main/AndroidManifest.xml:89:9-93:20
	android:name
		ADDED from /Users/nileshjarad/AndroidStudioProjects/PramVeer/DriveSafe-master/app/src/main/AndroidManifest.xml:89:19-85
intent-filter#android.intent.action.NEW_OUTGOING_CALL
ADDED from /Users/nileshjarad/AndroidStudioProjects/PramVeer/DriveSafe-master/app/src/main/AndroidManifest.xml:90:13-92:29
	android:priority
		ADDED from /Users/nileshjarad/AndroidStudioProjects/PramVeer/DriveSafe-master/app/src/main/AndroidManifest.xml:90:28-48
action#android.intent.action.NEW_OUTGOING_CALL
ADDED from /Users/nileshjarad/AndroidStudioProjects/PramVeer/DriveSafe-master/app/src/main/AndroidManifest.xml:91:17-82
	android:name
		ADDED from /Users/nileshjarad/AndroidStudioProjects/PramVeer/DriveSafe-master/app/src/main/AndroidManifest.xml:91:25-79
receiver#com.edreamz.drivesafe.listener.BlueToothHeadsetStateChangeReceiver
ADDED from /Users/nileshjarad/AndroidStudioProjects/PramVeer/DriveSafe-master/app/src/main/AndroidManifest.xml:94:9-99:20
	android:name
		ADDED from /Users/nileshjarad/AndroidStudioProjects/PramVeer/DriveSafe-master/app/src/main/AndroidManifest.xml:94:19-100
intent-filter#android.bluetooth.headset.action.AUDIO_STATE_CHANGED+android.bluetooth.headset.action.STATE_CHANGED
ADDED from /Users/nileshjarad/AndroidStudioProjects/PramVeer/DriveSafe-master/app/src/main/AndroidManifest.xml:95:13-98:29
action#android.bluetooth.headset.action.STATE_CHANGED
ADDED from /Users/nileshjarad/AndroidStudioProjects/PramVeer/DriveSafe-master/app/src/main/AndroidManifest.xml:96:17-89
	android:name
		ADDED from /Users/nileshjarad/AndroidStudioProjects/PramVeer/DriveSafe-master/app/src/main/AndroidManifest.xml:96:25-86
action#android.bluetooth.headset.action.AUDIO_STATE_CHANGED
ADDED from /Users/nileshjarad/AndroidStudioProjects/PramVeer/DriveSafe-master/app/src/main/AndroidManifest.xml:97:17-95
	android:name
		ADDED from /Users/nileshjarad/AndroidStudioProjects/PramVeer/DriveSafe-master/app/src/main/AndroidManifest.xml:97:25-92
receiver#com.edreamz.drivesafe.listener.AlarmReceiver
ADDED from /Users/nileshjarad/AndroidStudioProjects/PramVeer/DriveSafe-master/app/src/main/AndroidManifest.xml:100:9-101:20
	android:name
		ADDED from /Users/nileshjarad/AndroidStudioProjects/PramVeer/DriveSafe-master/app/src/main/AndroidManifest.xml:100:19-78
